[gd_scene load_steps=2 format=2]

[ext_resource path="res://Scripts/EnemySpawner.gd" type="Script" id=1]

[node name="EnemySpawn" type="Node2D"]
script = ExtResource( 1 )

[node name="Timer" type="Timer" parent="."]
wait_time = 3.0
autostart = true

[connection signal="timeout" from="Timer" to="." method="_on_Timer_timeout"]
