[gd_scene load_steps=7 format=2]

[ext_resource path="res://Assets/Base/Base.png" type="Texture" id=1]
[ext_resource path="res://Assets/Base/Base2.png" type="Texture" id=2]
[ext_resource path="res://Scripts/StarBase.gd" type="Script" id=3]

[sub_resource type="SpriteFrames" id=1]
animations = [ {
"frames": [ ExtResource( 1 ) ],
"loop": false,
"name": "default",
"speed": 5.0
}, {
"frames": [ ExtResource( 2 ) ],
"loop": false,
"name": "damaged",
"speed": 5.0
} ]

[sub_resource type="CircleShape2D" id=2]
radius = 110.05

[sub_resource type="CircleShape2D" id=3]
radius = 110.0

[node name="StarBase" type="StaticBody2D"]
script = ExtResource( 3 )

[node name="AnimatedSprite" type="AnimatedSprite" parent="."]
scale = Vector2( 0.25, 0.25 )
frames = SubResource( 1 )

[node name="CollisionShape2D" type="CollisionShape2D" parent="."]
shape = SubResource( 2 )

[node name="Area2D" type="Area2D" parent="." groups=[
"playerside",
]]
collision_layer = 4
collision_mask = 4

[node name="CollisionShape2D" type="CollisionShape2D" parent="Area2D"]
shape = SubResource( 3 )

[connection signal="area_entered" from="Area2D" to="." method="_on_Area2D_area_entered"]
